^C:\USERS\MIREVI-USER\DOCUMENTS\VISUAL STUDIO 2017\PROJECTS\CREATETEXTURE\CREATETEXTURE\X64\RELEASE\CREATETEXTURE.OBJ|C:\USERS\MIREVI-USER\DOCUMENTS\VISUAL STUDIO 2017\PROJECTS\CREATETEXTURE\CREATETEXTURE\X64\RELEASE\DLLMAIN.OBJ|C:\USERS\MIREVI-USER\DOCUMENTS\VISUAL STUDIO 2017\PROJECTS\CREATETEXTURE\CREATETEXTURE\X64\RELEASE\STDAFX.OBJ|C:\USERS\MIREVI-USER\DOCUMENTS\VISUAL STUDIO 2017\PROJECTS\CREATETEXTURE\CREATETEXTURE\X64\RELEASE\TEXTUREGENERATOR.OBJ
C:\USERS\MIREVI-USER\DOCUMENTS\VISUAL STUDIO 2017\PROJECTS\CREATETEXTURE\X64\RELEASE\CREATETEXTURE.DLL
C:\USERS\MIREVI-USER\DOCUMENTS\VISUAL STUDIO 2017\PROJECTS\CREATETEXTURE\X64\RELEASE\CREATETEXTURE.PDB
