%YAML 1.1
%TAG !u! tag:unity3d.com,2011:
--- !u!1001 &8194012766992846383
PrefabInstance:
  m_ObjectHideFlags: 0
  serializedVersion: 2
  m_Modification:
    m_TransformParent: {fileID: 0}
    m_Modifications:
    - target: {fileID: 100002, guid: 1b08102b5d9ab114c878fe9c4314c486, type: 3}
      propertyPath: m_Name
      value: birch Variant
      objectReference: {fileID: 0}
    - target: {fileID: 9500000, guid: 1b08102b5d9ab114c878fe9c4314c486, type: 3}
      propertyPath: m_Controller
      value: 
      objectReference: {fileID: 9100000, guid: 7c9f4b83e9063f84498b40721c6c546c, type: 2}
    - target: {fileID: 400002, guid: 1b08102b5d9ab114c878fe9c4314c486, type: 3}
      propertyPath: m_LocalPosition.x
      value: 0
      objectReference: {fileID: 0}
    - target: {fileID: 400002, guid: 1b08102b5d9ab114c878fe9c4314c486, type: 3}
      propertyPath: m_LocalPosition.y
      value: 0
      objectReference: {fileID: 0}
    - target: {fileID: 400002, guid: 1b08102b5d9ab114c878fe9c4314c486, type: 3}
      propertyPath: m_LocalPosition.z
      value: -5.55
      objectReference: {fileID: 0}
    - target: {fileID: 400002, guid: 1b08102b5d9ab114c878fe9c4314c486, type: 3}
      propertyPath: m_LocalRotation.x
      value: 0
      objectReference: {fileID: 0}
    - target: {fileID: 400002, guid: 1b08102b5d9ab114c878fe9c4314c486, type: 3}
      propertyPath: m_LocalRotation.y
      value: 0
      objectReference: {fileID: 0}
    - target: {fileID: 400002, guid: 1b08102b5d9ab114c878fe9c4314c486, type: 3}
      propertyPath: m_LocalRotation.z
      value: 0
      objectReference: {fileID: 0}
    - target: {fileID: 400002, guid: 1b08102b5d9ab114c878fe9c4314c486, type: 3}
      propertyPath: m_LocalRotation.w
      value: 1
      objectReference: {fileID: 0}
    - target: {fileID: 400002, guid: 1b08102b5d9ab114c878fe9c4314c486, type: 3}
      propertyPath: m_RootOrder
      value: 0
      objectReference: {fileID: 0}
    - target: {fileID: 400002, guid: 1b08102b5d9ab114c878fe9c4314c486, type: 3}
      propertyPath: m_LocalEulerAnglesHint.x
      value: 0
      objectReference: {fileID: 0}
    - target: {fileID: 400002, guid: 1b08102b5d9ab114c878fe9c4314c486, type: 3}
      propertyPath: m_LocalEulerAnglesHint.y
      value: 0
      objectReference: {fileID: 0}
    - target: {fileID: 400002, guid: 1b08102b5d9ab114c878fe9c4314c486, type: 3}
      propertyPath: m_LocalEulerAnglesHint.z
      value: 0
      objectReference: {fileID: 0}
    - target: {fileID: 400002, guid: 1b08102b5d9ab114c878fe9c4314c486, type: 3}
      propertyPath: m_LocalScale.x
      value: 1
      objectReference: {fileID: 0}
    - target: {fileID: 400002, guid: 1b08102b5d9ab114c878fe9c4314c486, type: 3}
      propertyPath: m_LocalScale.y
      value: 1
      objectReference: {fileID: 0}
    - target: {fileID: 400002, guid: 1b08102b5d9ab114c878fe9c4314c486, type: 3}
      propertyPath: m_LocalScale.z
      value: 1
      objectReference: {fileID: 0}
    m_RemovedComponents: []
  m_SourcePrefab: {fileID: 100100000, guid: 1b08102b5d9ab114c878fe9c4314c486, type: 3}
