%YAML 1.1
%TAG !u! tag:unity3d.com,2011:
--- !u!1001 &3632651401149047819
PrefabInstance:
  m_ObjectHideFlags: 0
  serializedVersion: 2
  m_Modification:
    m_TransformParent: {fileID: 0}
    m_Modifications:
    - target: {fileID: 100000, guid: dbd70ae8836ca3243b3a1cd9d663bc51, type: 3}
      propertyPath: m_Name
      value: Stone01
      objectReference: {fileID: 0}
    - target: {fileID: 400000, guid: dbd70ae8836ca3243b3a1cd9d663bc51, type: 3}
      propertyPath: m_LocalPosition.x
      value: -0
      objectReference: {fileID: 0}
    - target: {fileID: 400000, guid: dbd70ae8836ca3243b3a1cd9d663bc51, type: 3}
      propertyPath: m_LocalPosition.y
      value: 0
      objectReference: {fileID: 0}
    - target: {fileID: 400000, guid: dbd70ae8836ca3243b3a1cd9d663bc51, type: 3}
      propertyPath: m_LocalPosition.z
      value: 0
      objectReference: {fileID: 0}
    - target: {fileID: 400000, guid: dbd70ae8836ca3243b3a1cd9d663bc51, type: 3}
      propertyPath: m_LocalRotation.x
      value: 0
      objectReference: {fileID: 0}
    - target: {fileID: 400000, guid: dbd70ae8836ca3243b3a1cd9d663bc51, type: 3}
      propertyPath: m_LocalRotation.y
      value: 0
      objectReference: {fileID: 0}
    - target: {fileID: 400000, guid: dbd70ae8836ca3243b3a1cd9d663bc51, type: 3}
      propertyPath: m_LocalRotation.z
      value: 0
      objectReference: {fileID: 0}
    - target: {fileID: 400000, guid: dbd70ae8836ca3243b3a1cd9d663bc51, type: 3}
      propertyPath: m_LocalRotation.w
      value: 1
      objectReference: {fileID: 0}
    - target: {fileID: 400000, guid: dbd70ae8836ca3243b3a1cd9d663bc51, type: 3}
      propertyPath: m_RootOrder
      value: 0
      objectReference: {fileID: 0}
    - target: {fileID: 400000, guid: dbd70ae8836ca3243b3a1cd9d663bc51, type: 3}
      propertyPath: m_LocalEulerAnglesHint.x
      value: 0
      objectReference: {fileID: 0}
    - target: {fileID: 400000, guid: dbd70ae8836ca3243b3a1cd9d663bc51, type: 3}
      propertyPath: m_LocalEulerAnglesHint.y
      value: 0
      objectReference: {fileID: 0}
    - target: {fileID: 400000, guid: dbd70ae8836ca3243b3a1cd9d663bc51, type: 3}
      propertyPath: m_LocalEulerAnglesHint.z
      value: 0
      objectReference: {fileID: 0}
    - target: {fileID: 400000, guid: dbd70ae8836ca3243b3a1cd9d663bc51, type: 3}
      propertyPath: m_LocalScale.x
      value: 1
      objectReference: {fileID: 0}
    - target: {fileID: 400000, guid: dbd70ae8836ca3243b3a1cd9d663bc51, type: 3}
      propertyPath: m_LocalScale.y
      value: 1
      objectReference: {fileID: 0}
    - target: {fileID: 400000, guid: dbd70ae8836ca3243b3a1cd9d663bc51, type: 3}
      propertyPath: m_LocalScale.z
      value: 1
      objectReference: {fileID: 0}
    m_RemovedComponents: []
  m_SourcePrefab: {fileID: 100100000, guid: dbd70ae8836ca3243b3a1cd9d663bc51, type: 3}
