^C:\USERS\MIREVI-USER\DOCUMENTS\VISUAL STUDIO 2017\PROJECTS\CREATETEXTURE\CREATETEXTURE\RELEASE\CREATETEXTURE.OBJ|C:\USERS\MIREVI-USER\DOCUMENTS\VISUAL STUDIO 2017\PROJECTS\CREATETEXTURE\CREATETEXTURE\RELEASE\DLLMAIN.OBJ|C:\USERS\MIREVI-USER\DOCUMENTS\VISUAL STUDIO 2017\PROJECTS\CREATETEXTURE\CREATETEXTURE\RELEASE\STDAFX.OBJ|C:\USERS\MIREVI-USER\DOCUMENTS\VISUAL STUDIO 2017\PROJECTS\CREATETEXTURE\CREATETEXTURE\RELEASE\TEXTUREGENERATOR.OBJ
C:\USERS\MIREVI-USER\DOCUMENTS\VISUAL STUDIO 2017\PROJECTS\CREATETEXTURE\RELEASE\CREATETEXTURE.DLL
C:\USERS\MIREVI-USER\DOCUMENTS\VISUAL STUDIO 2017\PROJECTS\CREATETEXTURE\RELEASE\CREATETEXTURE.PDB
